^G:\MAZE\GAME\GAME\DEBUG\GAME.EXE.INTERMEDIATE.MANIFEST
/nologo /verbose /outputresource:"G:\Maze\Game\Debug\Game.exe;#1" /manifest Debug\Game.exe.intermediate.manifest
^C:\USERS\АРТЁМ\DOCUMENTS\PRACTICE\GAME\GAME\DEBUG\GAME.EXE.INTERMEDIATE.MANIFEST
/nologo /verbose /outputresource:"C:\Users\Артём\Documents\practice\Game\Debug\Game.exe;#1" /manifest Debug\Game.exe.intermediate.manifest
^C:\USERS\HOME\DESKTOP\GAME\GAME\DEBUG\GAME.EXE.INTERMEDIATE.MANIFEST
/nologo /verbose /outputresource:"C:\Users\Home\Desktop\Game\Debug\Game.exe;#1" /manifest Debug\Game.exe.intermediate.manifest
^C:\USERS\HOME\DESKTOP\ПРАКТ\С ПЕРЕМЕЩЕНИЕМ ПО КАРТЕ\GAME\GAME\DEBUG\GAME.EXE.INTERMEDIATE.MANIFEST
/nologo /verbose /outputresource:"C:\Users\Home\Desktop\Практ\С перемещением по карте\Game\Debug\Game.exe;#1" /manifest Debug\Game.exe.intermediate.manifest
^C:\USERS\HOME\DESKTOP\ПРАКТ\БЕЗ ГРАНИЦ ПО КРАЯМ\GAME\GAME\DEBUG\GAME.EXE.INTERMEDIATE.MANIFEST
/nologo /verbose /outputresource:"C:\Users\Home\Desktop\Практ\Без границ по краям\Game\Debug\Game.exe;#1" /manifest Debug\Game.exe.intermediate.manifest
^C:\USERS\HOME\DESKTOP\ПРАКТ\С ЗАСТАВКОЙ\GAME\GAME\DEBUG\GAME.EXE.INTERMEDIATE.MANIFEST
/nologo /verbose /outputresource:"C:\Users\Home\Desktop\Практ\С заставкой\Game\Debug\Game.exe;#1" /manifest Debug\Game.exe.intermediate.manifest
^C:\USERS\HOME\DESKTOP\ПРАКТ\СО СЧЕТЧИКОМ ЗВЁЗД\GAME\GAME\DEBUG\GAME.EXE.INTERMEDIATE.MANIFEST
/nologo /verbose /outputresource:"C:\Users\Home\Desktop\Практ\Со счетчиком звёзд\Game\Debug\Game.exe;#1" /manifest Debug\Game.exe.intermediate.manifest
^C:\USERS\HOME\DESKTOP\ПРАКТ\СО СЧЕТЧИКОМ ЗВЁЗД И ЗВАНИЯМИ\GAME\GAME\DEBUG\GAME.EXE.INTERMEDIATE.MANIFEST
/nologo /verbose /outputresource:"C:\Users\Home\Desktop\Практ\Со счетчиком звёзд и званиями\Game\Debug\Game.exe;#1" /manifest Debug\Game.exe.intermediate.manifest
^C:\USERS\HOME\DESKTOP\ПРАКТ\СО СЧЕТЧИКОМ ЗВЁЗД И ЗВАНИЯМИ И ЗВЕЗДОЙ КОНЦА ЛАБИРИНТА\GAME\GAME\DEBUG\GAME.EXE.INTERMEDIATE.MANIFEST
/nologo /verbose /outputresource:"C:\Users\Home\Desktop\Практ\Со счетчиком звёзд и званиями и звездой конца лабиринта\Game\Debug\Game.exe;#1" /manifest Debug\Game.exe.intermediate.manifest
^C:\USERS\HOME\DESKTOP\ПРАКТ\С КОНЦОВКОЙ\GAME\GAME\DEBUG\GAME.EXE.INTERMEDIATE.MANIFEST
/nologo /verbose /outputresource:"C:\Users\Home\Desktop\Практ\С концовкой\Game\Debug\Game.exe;#1" /manifest Debug\Game.exe.intermediate.manifest
^C:\USERS\HOME\DESKTOP\ПРАКТ\С ОТОБРАЖЕНИЕМ КОНЦОВКИ РЕЗУЛЬТАТОВ\GAME\GAME\DEBUG\GAME.EXE.INTERMEDIATE.MANIFEST
/nologo /verbose /outputresource:"C:\Users\Home\Desktop\Практ\С отображением концовки результатов\Game\Debug\Game.exe;#1" /manifest Debug\Game.exe.intermediate.manifest
^G:\ПРАКТ\С ОТОБРАЖЕНИЕМ КОНЦОВКИ РЕЗУЛЬТАТОВ\GAME\GAME\DEBUG\GAME.EXE.INTERMEDIATE.MANIFEST
/nologo /verbose /outputresource:"G:\Практ\С отображением концовки результатов\Game\Debug\Game.exe;#1" /manifest Debug\Game.exe.intermediate.manifest
